Take-Home Exercise 01 – ISSS608-Coursework
…
Since this is a survey dataset without respondent IDs, and projection duplicates can legitimately reflect homogeneous socio-economic profiles in the target population, we retain all records to avoid artificially altering the sample distribution.

1.4.2 Checking Missing Value

na_summary <- selected_df %>%
  summarise(across(everything(), ~sum(is.na(.)))) %>%
  pivot_longer(everything(),
               names_to = "variable",
               values_to = "na_count") %>%
  arrange(desc(na_count))

na_summary

# A tibble: 24 × 2
   variable na_count
   <chr>       <int>
 1 LHO4          653
 2 LHO3          616
 3 LHO1          512
 4 LHO2          402
 5 PPO2          230
 6 PPO1          209
 7 LWDA          160
 8 ARO4          111
 9 PPO5          106
10 FTAP          102
# ℹ 14 more rows
…
